{
  "resolution": "main",
  "tree": {
    "src": "https://raw.githubusercontent.com/DefinitelyTyped/DefinitelyTyped/ffad52fa9cfba2ab1a08da7fecbb944264184d91/jsdom/jsdom.d.ts",
    "raw": "registry:dt/jsdom#2.0.0+20150923033719",
    "typings": "https://raw.githubusercontent.com/DefinitelyTyped/DefinitelyTyped/ffad52fa9cfba2ab1a08da7fecbb944264184d91/jsdom/jsdom.d.ts"
  }
}
